<svg width="14" height="14" viewBox="0 0 14 14" fill="none" xmlns="http://www.w3.org/2000/svg">
<path d="M11.4074 2.45625C10.1591 1.23317 8.49939 0.55957 6.73403 0.55957C4.96863 0.55957 3.30891 1.23317 2.06064 2.45625C0.812333 3.67936 0.124878 5.30558 0.124878 7.03531C0.124878 8.76504 0.812333 10.3912 2.06064 11.6143C3.30894 12.8375 4.96863 13.5111 6.73403 13.5111C8.49939 13.5111 10.1591 12.8375 11.4074 11.6143C12.6557 10.3912 13.3432 8.76504 13.3432 7.03531C13.3432 5.30558 12.6557 3.67939 11.4074 2.45625ZM6.73403 12.7522C3.51679 12.7522 0.899387 10.1876 0.899387 7.03531C0.899387 3.88302 3.51679 1.31845 6.73403 1.31845C9.95126 1.31845 12.5687 3.88302 12.5687 7.03531C12.5687 10.1876 9.95126 12.7522 6.73403 12.7522Z" fill="url(#paint0_linear)"/>
<path d="M9.89157 4.95749C9.74036 4.80936 9.49515 4.80936 9.34394 4.95751L5.92425 8.30818L4.12411 6.54437C3.9729 6.39622 3.72769 6.39622 3.57645 6.54437C3.42522 6.69253 3.42522 6.93279 3.57645 7.08098L5.65041 9.11307C5.72603 9.18716 5.82514 9.22419 5.92422 9.22419C6.02331 9.22419 6.12245 9.18714 6.19804 9.11307L9.89157 5.49409C10.0428 5.34593 10.0428 5.10567 9.89157 4.95749Z" fill="url(#paint1_linear)"/>
<defs>
<linearGradient id="paint0_linear" x1="6.73403" y1="0.55957" x2="6.73403" y2="13.5111" gradientUnits="userSpaceOnUse">
<stop stop-color="#B7D602"/>
<stop offset="1" stop-color="#68C316"/>
</linearGradient>
<linearGradient id="paint1_linear" x1="6.73403" y1="0.55957" x2="6.73403" y2="13.5111" gradientUnits="userSpaceOnUse">
<stop stop-color="#B7D602"/>
<stop offset="1" stop-color="#68C316"/>
</linearGradient>
</defs>
</svg>
