<svg width="100" height="102" viewBox="0 0 100 102" fill="none" xmlns="http://www.w3.org/2000/svg">
<path d="M0.5 90V0.5H90L0.5 90Z" fill="#F02121"/>
<path d="M0.5 90V0.5H90L0.5 90Z" fill="url(#paint0_linear)"/>
<path d="M99.5 4.50487H86L90 0.500322C96 0.100322 99 3.00487 99.5 4.50487Z" fill="#8C0206"/>
<path d="M4.5 101.5C1.3 99.9 0.5 92.8333 0.5 89.5L4.5 86V101.5Z" fill="#8C0206"/>
<defs>
<linearGradient id="paint0_linear" x1="41.5" y1="-11" x2="-2" y2="94" gradientUnits="userSpaceOnUse">
<stop stop-color="#FE1C28"/>
<stop offset="1" stop-color="#A4191F"/>
</linearGradient>
</defs>
</svg>
