<svg width="30" height="29" viewBox="0 0 30 29" fill="none" xmlns="http://www.w3.org/2000/svg">
<g opacity="0.6">
<path d="M12.9328 22.8694C11.5167 22.8694 10.3647 24.0215 10.3647 25.4375C10.3647 26.8536 11.5167 28.0056 12.9328 28.0056C14.3489 28.0056 15.5009 26.8536 15.5009 25.4375C15.5008 24.0215 14.3488 22.8694 12.9328 22.8694ZM12.9328 26.5716C12.3074 26.5716 11.7986 26.0628 11.7986 25.4374C11.7986 24.812 12.3074 24.3032 12.9328 24.3032C13.5582 24.3032 14.067 24.8121 14.067 25.4374C14.067 26.0629 13.5582 26.5716 12.9328 26.5716Z" fill="#818181"/>
<path d="M21.9407 22.8694C20.5247 22.8694 19.3726 24.0215 19.3726 25.4375C19.3726 26.8536 20.5247 28.0056 21.9407 28.0056C23.3568 28.0056 24.5088 26.8536 24.5088 25.4375C24.5088 24.0215 23.3567 22.8694 21.9407 22.8694ZM21.9407 26.5716C21.3153 26.5716 20.8065 26.0628 20.8065 25.4374C20.8065 24.812 21.3153 24.3032 21.9407 24.3032C22.5661 24.3032 23.0749 24.8121 23.0749 25.4374C23.0749 26.0629 22.5661 26.5716 21.9407 26.5716Z" fill="#818181"/>
<path d="M22.5729 9.34862H12.2986C11.9027 9.34862 11.5817 9.6696 11.5817 10.0656C11.5817 10.4616 11.9027 10.7825 12.2986 10.7825H22.5729C22.9689 10.7825 23.2899 10.4616 23.2899 10.0656C23.2899 9.66954 22.9689 9.34862 22.5729 9.34862Z" fill="#818181"/>
<path d="M22.0138 13.0717H12.858C12.462 13.0717 12.141 13.3927 12.141 13.7886C12.141 14.1846 12.462 14.5056 12.858 14.5056H22.0138C22.4097 14.5056 22.7307 14.1846 22.7307 13.7886C22.7307 13.3927 22.4097 13.0717 22.0138 13.0717Z" fill="#818181"/>
<path d="M29.5666 6.15419C29.2932 5.81861 28.888 5.62618 28.4551 5.62618H6.12278L5.67177 3.43677C5.57761 2.98006 5.2661 2.59657 4.8383 2.41082L1.69144 1.04489C1.32814 0.887086 0.905933 1.05379 0.748353 1.41697C0.590602 1.78027 0.757307 2.20254 1.12043 2.36012L4.26735 3.72609L7.73639 20.5655C7.87304 21.2287 8.46367 21.71 9.14081 21.71H26.317C26.7129 21.71 27.0339 21.389 27.0339 20.9931C27.0339 20.5971 26.7129 20.2761 26.317 20.2761H9.14087L8.71889 18.2277H26.4497C27.1268 18.2277 27.7175 17.7464 27.8541 17.0832L29.8595 7.34924C29.9468 6.92538 29.8401 6.48971 29.5666 6.15419ZM26.4497 16.7939H8.42352L6.41821 7.06003L28.4551 7.06009L26.4497 16.7939Z" fill="#818181"/>
</g>
</svg>
