<svg width="26" height="25" viewBox="0 0 26 25" fill="none" xmlns="http://www.w3.org/2000/svg">
<path d="M10.9196 20.2668C9.66455 20.2668 8.6435 21.2878 8.6435 22.5428C8.6435 23.7979 9.66455 24.8189 10.9196 24.8189C12.1746 24.8189 13.1957 23.7979 13.1957 22.5428C13.1956 21.2878 12.1746 20.2668 10.9196 20.2668ZM10.9196 23.548C10.3653 23.548 9.91435 23.097 9.91435 22.5427C9.91435 21.9884 10.3653 21.5375 10.9196 21.5375C11.4738 21.5375 11.9248 21.9885 11.9248 22.5427C11.9248 23.0971 11.4738 23.548 10.9196 23.548Z" fill="white"/>
<path d="M18.9032 20.2668C17.6482 20.2668 16.6271 21.2878 16.6271 22.5428C16.6271 23.7979 17.6482 24.8189 18.9032 24.8189C20.1582 24.8189 21.1793 23.7979 21.1793 22.5428C21.1792 21.2878 20.1582 20.2668 18.9032 20.2668ZM18.9032 23.548C18.3489 23.548 17.898 23.097 17.898 22.5427C17.898 21.9884 18.349 21.5375 18.9032 21.5375C19.4575 21.5375 19.9084 21.9885 19.9084 22.5427C19.9084 23.0971 19.4575 23.548 18.9032 23.548Z" fill="white"/>
<path d="M19.4636 8.28339H10.3575C10.0066 8.28339 9.7221 8.56787 9.7221 8.91882C9.7221 9.26976 10.0066 9.55424 10.3575 9.55424H19.4636C19.8145 9.55424 20.099 9.26976 20.099 8.91882C20.099 8.56782 19.8145 8.28339 19.4636 8.28339Z" fill="white"/>
<path d="M18.968 11.5831H10.8533C10.5023 11.5831 10.2178 11.8676 10.2178 12.2185C10.2178 12.5695 10.5023 12.854 10.8533 12.854H18.968C19.3189 12.854 19.6034 12.5695 19.6034 12.2185C19.6034 11.8676 19.3189 11.5831 18.968 11.5831Z" fill="white"/>
<path d="M25.662 5.45219C25.4197 5.15477 25.0606 4.98422 24.6769 4.98422H4.88392L4.4842 3.04376C4.40074 2.63898 4.12466 2.2991 3.7455 2.13447L0.956462 0.923866C0.634477 0.784002 0.260276 0.931751 0.120614 1.25364C-0.0191989 1.57562 0.12855 1.94987 0.450384 2.08953L3.23947 3.30019L6.31405 18.2248C6.43516 18.8126 6.95863 19.2392 7.55878 19.2392H22.7819C23.1328 19.2392 23.4173 18.9547 23.4173 18.6038C23.4173 18.2528 23.1328 17.9683 22.7819 17.9683H7.55883L7.18483 16.1529H22.8995C23.4996 16.1529 24.0231 15.7263 24.1442 15.1385L25.9216 6.51135C25.999 6.13568 25.9044 5.74955 25.662 5.45219ZM22.8995 14.8821H6.92305L5.14576 6.25503L24.6768 6.25508L22.8995 14.8821Z" fill="white"/>
</svg>
