<svg width="40" height="70" viewBox="0 0 40 70" fill="none" xmlns="http://www.w3.org/2000/svg">
<path d="M0.415405 33.8166C0.415405 44.4005 8.99535 52.9804 19.5793 52.9804C24.7174 52.9804 33.1484 65.1055 40.4641 69.504V-2.11694C33.2843 1.25096 25.0514 14.6528 19.5793 14.6528C8.99535 14.6528 0.415405 23.2327 0.415405 33.8166Z" fill="url(#paint0_linear)"/>
<path d="M25.4842 45.39C24.7393 45.39 23.8397 45.189 22.8504 44.7869C20.6814 43.9064 18.3215 42.166 16.2055 39.8875C14.0889 37.6083 12.4728 35.0665 11.6544 32.7309C10.9107 30.6073 10.9089 28.8643 11.6502 28.0668C11.7568 27.952 11.8652 27.8288 11.9772 27.7017C12.6534 26.9359 13.4175 26.0742 14.4304 26.1131C15.1283 26.1442 15.8045 26.6111 16.497 27.539C18.5431 30.2792 17.6206 31.2557 16.553 32.3878L16.3645 32.5889C16.1899 32.7769 15.8599 33.6477 18.9297 36.9534C19.9317 38.0323 20.7862 38.8221 21.469 39.3C21.899 39.6009 22.6679 40.0561 22.9834 39.7163L23.1731 39.5101C24.2233 38.363 25.1301 37.3729 27.6731 39.5743C28.5348 40.32 28.9677 41.0475 28.9966 41.8003C29.0382 42.8903 28.2319 43.7151 27.5201 44.4426C27.4027 44.5632 27.2883 44.6799 27.1817 44.7941C26.8138 45.1909 26.2255 45.39 25.4842 45.39ZM14.3581 26.7602C13.6385 26.7602 12.9888 27.4968 12.4137 28.1485C12.2981 28.2795 12.1861 28.4065 12.0759 28.5252C11.5237 29.1192 11.5797 30.6799 12.218 32.5026C13.0069 34.7539 14.5743 37.214 16.6319 39.4297C18.6888 41.644 20.9722 43.3319 23.0635 44.1807C24.7562 44.8693 26.2056 44.9276 26.7566 44.3343C26.8668 44.2157 26.9848 44.0951 27.1064 43.9712C27.7249 43.3384 28.4264 42.6212 28.3957 41.8256C28.3746 41.279 28.0049 40.6909 27.2967 40.0781C25.1777 38.2431 24.5852 38.8908 23.6025 39.964L23.4098 40.1734C22.9401 40.6798 22.1772 40.5677 21.1414 39.8427C20.4231 39.3396 19.5355 38.5212 18.5046 37.4105C15.9568 34.6677 15.1421 32.9889 15.9394 32.1285L16.1315 31.9242C17.1305 30.866 17.7332 30.2273 16.0285 27.9442C15.4583 27.1823 14.9127 26.7842 14.4051 26.7609C14.3894 26.7602 14.3738 26.7602 14.3581 26.7602Z" fill="white" stroke="white" stroke-width="0.5"/>
<defs>
<linearGradient id="paint0_linear" x1="20.4397" y1="-2.11694" x2="20.4397" y2="69.504" gradientUnits="userSpaceOnUse">
<stop stop-color="#B7D602"/>
<stop offset="1" stop-color="#68C316"/>
</linearGradient>
</defs>
</svg>
